{
  "package": {
    "app_name": "TC_-_Notification_Sync",
    "app_version": "v1",
    "excludes": [
      "*.install.json",
      ".gitignore",
      ".pre-commit-config.yaml",
      "local-*",
      "pyproject.toml",
      "setup.cfg",
      "tcex.d",
      "tcex.json"
    ],
    "outdir": "target"
  }
}
